#############
# Output
#############

output top_level {
  output L1Calo {
    output Expert {
     output TREX {
      output Overview {
      }
      output SpareChannels {
        output ADC {
        }
        output Errors {
          output Detail {
          }
        }
      }
      output Errors {
        output Data_Simulation {
          output MismatchEventNumbers {
          }
          output PPMLUTSim {
          }
          output PPMBcidSim {
          }
        }
        output Detail {
        }
      }
      output ADC {
        output EtaPhiMaps {
        }
        output Timeslices {
        }
      }
      output LUT-CP {
        output EtaPhiMaps {
        }
        output Distributions {
        }
      }
      output LUT-JEP {
        output EtaPhiMaps {
        }
        output Distributions {
        }
      }
      output Stability {
        output FineTime {
          output FineTime_Lumi {
          }
        }
        output Pedestal {
          output Pedestal_Summary {
          }
          output Pedestal_BCN {
          }
          output Pedestal_Lumi {
          }
        }
        output PedestalCorrection {
          output PedestalCorrection_Summary {
          }
          output PedestalCorrection_BCN {
          }
          output PedestalCorrection_Lumi {
          }
        }
        output EtCorrelation {
          output EtCorrelation_Lumi {
          }
        }
      }
     }
    }
  }
}



dir L1Calo {
  algorithm = L1Calo_GatherData
  reference = CentrallyManagedReferences_TriggerMain
  output = L1Calo
  dir Overview {
    hist l1calo_1d_NumberOfEvents {
      output = L1Calo/Expert/TREX/Overview
    }
    dir Errors {
      hist l1calo_2d_GlobalOverview {
        output = L1Calo/Expert/TREX/Overview
        display = SetPalette(1),SetGridx,SetGridy
        algorithm = L1Calo_IsEmpty
      }
    }
  }
  dir PPM {
    dir SpareChannels {
      dir ADC {
        output = L1Calo/Expert/TREX/SpareChannels/ADC
        hist ppmspare_1d_tt_adc_TriggeredSlice {
          display = LogY
        }
        hist ppmspare_2d_tt_adc_ProfileMap {
          display = SetPalette(1)
        }
      }
      dir Errors {
        output = L1Calo/Expert/TREX/SpareChannels/Errors
        hist ppmspare_1d_ErrorSummary {
          display = SetGridx,SetGridy
        }
        hist ppmspare_2d_ASICErrorEventNumbers {
        }
        hist ppmspare_2d_ErrorEventNumbers {
        }
        hist ppmspare_2d_ErrorField25 {
          display = SetGridx,SetGridy
        }
        hist ppmspare_2d_Status25 {
          display = SetGridx,SetGridy
        }
        dir Detail {
          output = L1Calo/Expert/TREX/SpareChannels/Errors/Detail
          hist ppmspare_2d_Channel0DisabledChannel1DisabledCrate23 {
            display = SetGridx,SetGridy
          }
          hist ppmspare_2d_Channel0DisabledChannel1DisabledCrate45 {
            display = SetGridx,SetGridy
          }
          hist ppmspare_2d_Channel2DisabledChannel3DisabledCrate23 {
            display = SetGridx,SetGridy
          }
          hist ppmspare_2d_Channel2DisabledChannel3DisabledCrate45 {
            display = SetGridx,SetGridy
          }
          hist ppmspare_2d_EventMismatchBunchMismatchCrate23 {
            display = SetGridx,SetGridy
          }
          hist ppmspare_2d_EventMismatchBunchMismatchCrate45 {
            display = SetGridx,SetGridy
          }
          hist ppmspare_2d_FIFOCorruptPinParityCrate23 {
            display = SetGridx,SetGridy
          }
          hist ppmspare_2d_FIFOCorruptPinParityCrate45 {
            display = SetGridx,SetGridy
          }
          hist ppmspare_2d_MCMAbsentCrate23 {
            display = SetGridx,SetGridy
          }
          hist ppmspare_2d_MCMAbsentCrate45 {
            display = SetGridx,SetGridy
          }
          hist ppmspare_2d_TimeoutASICFullCrate23 {
            display = SetGridx,SetGridy
          }
          hist ppmspare_2d_TimeoutASICFullCrate45 {
            display = SetGridx,SetGridy
          }
        }
      }
    }
    dir Errors {
      output = L1Calo/Expert/TREX/Errors
      hist ppm_1d_ErrorSummary {
        algorithm = L1Calo_IsEmpty
      }
      hist ppm_2d_ASICErrorEventNumbers {
      }
      hist ppm_2d_ErrorEventNumbers {
      }
      hist ppm_2d_BcnMismatch03 {
        display = SetPalette(1)
      }
      hist ppm_2d_BcnMismatch47 {
        display = SetPalette(1)
      }
      hist ppm_2d_ErrorField03 {
        display = SetPalette(1)
      }
      hist ppm_2d_ErrorField47 {
        display = SetPalette(1)
      }
      hist ppm_2d_Status03 {
        display = SetPalette(1)
      }
      hist ppm_2d_Status47 {
        display = SetPalette(1)
      }
      dir Data_Simulation {
        dir MismatchEventNumbers {
          output = L1Calo/Expert/TREX/Errors/Data_Simulation/MismatchEventNumbers
          hist ppm_2d_LUT_MismatchEvents_cr0cr1 {
          }
          hist ppm_2d_LUT_MismatchEvents_cr2cr3 {
          }
          hist ppm_2d_LUT_MismatchEvents_cr4cr5 {
          }
          hist ppm_2d_LUT_MismatchEvents_cr6cr7 {
          }
        }
        dir PPMLUTSim {
          output = L1Calo/Expert/TREX/Errors/Data_Simulation/PPMLUTSim
          hist ppm_em_2d_etaPhi_tt_lutCp_DataNoSim {
          }
          hist ppm_em_2d_etaPhi_tt_lutCp_SimEqData {
          }
          hist ppm_em_2d_etaPhi_tt_lutCp_SimNeData {
          }
          hist ppm_em_2d_etaPhi_tt_lutCp_SimNoData {
          }
          hist ppm_em_2d_etaPhi_tt_lutJep_DataNoSim {
          }
          hist ppm_em_2d_etaPhi_tt_lutJep_SimEqData {
          }
          hist ppm_em_2d_etaPhi_tt_lutJep_SimNeData {
          }
          hist ppm_em_2d_etaPhi_tt_lutJep_SimNoData {
          }
          hist ppm_had_2d_etaPhi_tt_lutCp_DataNoSim {
          }
          hist ppm_had_2d_etaPhi_tt_lutCp_SimEqData {
          }
          hist ppm_had_2d_etaPhi_tt_lutCp_SimNeData {
          }
          hist ppm_had_2d_etaPhi_tt_lutCp_SimNoData {
          }
          hist ppm_had_2d_etaPhi_tt_lutJep_DataNoSim {
          }
          hist ppm_had_2d_etaPhi_tt_lutJep_SimEqData {
          }
          hist ppm_had_2d_etaPhi_tt_lutJep_SimNeData {
          }
          hist ppm_had_2d_etaPhi_tt_lutJep_SimNoData {
          }
        }
        dir PPMBcidSim {
          output = L1Calo/Expert/TREX/Errors/Data_Simulation/PPMBcidSim
          hist ppm_2d_etaPhi_tt_satBcid_DataNoSim {
          }
          hist ppm_2d_etaPhi_tt_satBcid_NonZeroMatches {
          }
          hist ppm_2d_etaPhi_tt_satBcid_SimNoData {
          }
          hist ppm_2d_etaPhi_tt_satBcid_ZeroMatches {
          }
        }
      }
      dir Detail {
        output = L1Calo/Expert/TREX/Errors/Detail
        hist ppm_2d_Channel0DisabledChannel1DisabledCrate01 {
        }
        hist ppm_2d_Channel0DisabledChannel1DisabledCrate23 {
        }
        hist ppm_2d_Channel0DisabledChannel1DisabledCrate45 {
        }
        hist ppm_2d_Channel0DisabledChannel1DisabledCrate67 {
        }
        hist ppm_2d_Channel2DisabledChannel3DisabledCrate01 {
        }
        hist ppm_2d_Channel2DisabledChannel3DisabledCrate23 {
        }
        hist ppm_2d_Channel2DisabledChannel3DisabledCrate45 {
        }
        hist ppm_2d_Channel2DisabledChannel3DisabledCrate67 {
        }
        hist ppm_2d_EventMismatchBunchMismatchCrate01 {
        }
        hist ppm_2d_EventMismatchBunchMismatchCrate23 {
        }
        hist ppm_2d_EventMismatchBunchMismatchCrate45 {
        }
        hist ppm_2d_EventMismatchBunchMismatchCrate67 {
        }
        hist ppm_2d_FIFOCorruptPinParityCrate01 {
        }
        hist ppm_2d_FIFOCorruptPinParityCrate23 {
        }
        hist ppm_2d_FIFOCorruptPinParityCrate45 {
        }
        hist ppm_2d_FIFOCorruptPinParityCrate67 {
        }
        hist ppm_2d_MCMAbsentCrate01 {
        }
        hist ppm_2d_MCMAbsentCrate23 {
        }
        hist ppm_2d_MCMAbsentCrate45 {
        }
        hist ppm_2d_MCMAbsentCrate67 {
        }
        hist ppm_2d_TimeoutASICFullCrate01 {
        }
        hist ppm_2d_TimeoutASICFullCrate23 {
        }
        hist ppm_2d_TimeoutASICFullCrate45 {
        }
        hist ppm_2d_TimeoutASICFullCrate67 {
        }
      }
    }
    dir ADC {
      dir EtaPhiMaps {
        output = L1Calo/Expert/TREX/ADC/EtaPhiMaps
        hist ppm_em_2d_etaPhi_tt_adc_HitMap {
          display = SetPalette(1),LogZ
        }
        hist ppm_em_2d_etaPhi_tt_adc_ProfileHitMap {
          display = SetPalette(1),LogZ
        }
        hist ppm_had_2d_etaPhi_tt_adc_HitMap {
          display = SetPalette(1),LogZ
        }
        hist ppm_had_2d_etaPhi_tt_adc_ProfileHitMap {
          display = SetPalette(1),LogZ
        }
      }
      dir Timeslices {
        output = L1Calo/Expert/TREX/ADC/Timeslices
        hist ppm_2d_tt_adc_BcidBits {
        }
        hist ppm_em_1d_tt_adc_TriggeredSlice {
        }
        hist ppm_em_1d_tt_adc_MaxTimeslice {
        }
        hist ppm_em_2d_etaPhi_tt_adc_MaxTimeslice {
          display = SetPalette(1)
        }
        hist ppm_had_1d_tt_adc_TriggeredSlice {
        }
        hist ppm_had_1d_tt_adc_MaxTimeslice {
        }
        hist ppm_had_2d_etaPhi_tt_adc_MaxTimeslice {
          display = SetPalette(1)
        }
        hist ppm_em_1d_tt_adc_SignalProfileLArEMBA {
        }
        hist ppm_em_1d_tt_adc_SignalProfileLArEMBC {
        }
        hist ppm_em_1d_tt_adc_SignalProfileLArEMECA {
        }
        hist ppm_em_1d_tt_adc_SignalProfileLArEMECC {
        }
        hist ppm_em_1d_tt_adc_SignalProfileLArFCAL1A {
        }
        hist ppm_em_1d_tt_adc_SignalProfileLArFCAL1C {
        }
        hist ppm_em_1d_tt_adc_SignalProfileLArOverlapA {
        }
        hist ppm_em_1d_tt_adc_SignalProfileLArOverlapC {
        }
        hist ppm_had_1d_tt_adc_SignalProfileLArFCAL23A {
        }
        hist ppm_had_1d_tt_adc_SignalProfileLArFCAL23C {
        }
        hist ppm_had_1d_tt_adc_SignalProfileLArHECA {
        }
        hist ppm_had_1d_tt_adc_SignalProfileLArHECC {
        }
        hist ppm_had_1d_tt_adc_SignalProfileTileEBA {
        }
        hist ppm_had_1d_tt_adc_SignalProfileTileEBC {
        }
        hist ppm_had_1d_tt_adc_SignalProfileTileLBA {
        }
        hist ppm_had_1d_tt_adc_SignalProfileTileLBC {
        }
      }
    }
    dir LUT-CP {
      dir EtaPhiMaps {
        output = L1Calo/Expert/TREX/LUT-CP/EtaPhiMaps
        hist ppm_em_2d_etaPhi_tt_lutcp_Threshold00 {
          display = SetPalette(1),LogZ
        }
        hist ppm_em_2d_etaPhi_tt_lutcp_Threshold01 {
          display = SetPalette(1),LogZ
        }
        hist ppm_em_2d_etaPhi_tt_lutcp_Threshold02 {
          display = SetPalette(1),LogZ
        }
        hist ppm_em_2d_etaPhi_tt_lutcp_Threshold03 {
          display = SetPalette(1),LogZ
        }
        hist ppm_em_2d_etaPhi_tt_lutcp_Threshold04 {
          display = SetPalette(1),LogZ
        }
        hist ppm_em_2d_etaPhi_tt_lutcp_Threshold05 {
          display = SetPalette(1),LogZ
        }
        hist ppm_em_2d_etaPhi_tt_lutcp_Threshold06 {
          display = SetPalette(1),LogZ
        }
        hist ppm_em_2d_etaPhi_tt_lutcp_Threshold07 {
          display = SetPalette(1),LogZ
        }
        hist ppm_em_2d_etaPhi_tt_lutcp_Threshold08 {
          display = SetPalette(1),LogZ
        }
        hist ppm_em_2d_etaPhi_tt_lutcp_Threshold09 {
          display = SetPalette(1),LogZ
        }
        hist ppm_em_2d_etaPhi_tt_lutcp_Threshold10 {
          display = SetPalette(1),LogZ
        }
        hist ppm_em_2d_etaPhi_tt_lutcp_Threshold11 {
          display = SetPalette(1),LogZ
        }
        hist ppm_em_2d_etaPhi_tt_lutcp_Threshold12 {
          display = SetPalette(1),LogZ
        }
        hist ppm_em_2d_etaPhi_tt_lutcp_Threshold13 {
          display = SetPalette(1),LogZ
        }
        hist ppm_had_2d_etaPhi_tt_lutcp_Threshold00 {
          display = SetPalette(1),LogZ
        }
        hist ppm_had_2d_etaPhi_tt_lutcp_Threshold01 {
          display = SetPalette(1),LogZ
        }
        hist ppm_had_2d_etaPhi_tt_lutcp_Threshold02 {
          display = SetPalette(1),LogZ
        }
        hist ppm_had_2d_etaPhi_tt_lutcp_Threshold03 {
          display = SetPalette(1),LogZ
        }
        hist ppm_had_2d_etaPhi_tt_lutcp_Threshold04 {
          display = SetPalette(1),LogZ
        }
        hist ppm_had_2d_etaPhi_tt_lutcp_Threshold05 {
          display = SetPalette(1),LogZ
        }
        hist ppm_had_2d_etaPhi_tt_lutcp_Threshold06 {
          display = SetPalette(1),LogZ
        }
        hist ppm_had_2d_etaPhi_tt_lutcp_Threshold07 {
          display = SetPalette(1),LogZ
        }
        hist ppm_had_2d_etaPhi_tt_lutcp_Threshold08 {
          display = SetPalette(1),LogZ
        }
        hist ppm_had_2d_etaPhi_tt_lutcp_Threshold09 {
          display = SetPalette(1),LogZ
        }
        hist ppm_had_2d_etaPhi_tt_lutcp_Threshold10 {
          display = SetPalette(1),LogZ
        }
        hist ppm_had_2d_etaPhi_tt_lutcp_Threshold11 {
          display = SetPalette(1),LogZ
        }
        hist ppm_had_2d_etaPhi_tt_lutcp_Threshold12 {
          display = SetPalette(1),LogZ
        }
        hist ppm_had_2d_etaPhi_tt_lutcp_Threshold13 {
          display = SetPalette(1),LogZ
        }
      }
      dir Distributions {
        output = L1Calo/Expert/TREX/LUT-CP/Distributions
        hist ppm_em_1d_tt_lutcp_Et {
          display = LogX,LogY
        }
        hist ppm_em_1d_tt_lutcp_Eta {
        }
        hist ppm_em_1d_tt_lutcp_Phi {
        }
        hist ppm_had_1d_tt_lutcp_Et {
          display = LogX,LogY
        }
        hist ppm_had_1d_tt_lutcp_Eta {
        }
        hist ppm_had_1d_tt_lutcp_Phi {
        }
        hist ppm_1d_tt_lutcp_LutPerBCN {
        }
      }
    }
    dir LUT-JEP {
      dir EtaPhiMaps {
        output = L1Calo/Expert/TREX/LUT-JEP/EtaPhiMaps
        hist ppm_em_2d_etaPhi_tt_lutjep_Threshold00 {
          display = SetPalette(1),LogZ
        }
        hist ppm_em_2d_etaPhi_tt_lutjep_Threshold01 {
          display = SetPalette(1),LogZ
        }
        hist ppm_em_2d_etaPhi_tt_lutjep_Threshold02 {
          display = SetPalette(1),LogZ
        }
        hist ppm_em_2d_etaPhi_tt_lutjep_Threshold03 {
          display = SetPalette(1),LogZ
        }
        hist ppm_em_2d_etaPhi_tt_lutjep_Threshold04 {
          display = SetPalette(1),LogZ
        }
        hist ppm_em_2d_etaPhi_tt_lutjep_Threshold05 {
          display = SetPalette(1),LogZ
        }
        hist ppm_em_2d_etaPhi_tt_lutjep_Threshold06 {
          display = SetPalette(1),LogZ
        }
        hist ppm_em_2d_etaPhi_tt_lutjep_Threshold07 {
          display = SetPalette(1),LogZ
        }
        hist ppm_em_2d_etaPhi_tt_lutjep_Threshold08 {
          display = SetPalette(1),LogZ
        }
        hist ppm_em_2d_etaPhi_tt_lutjep_Threshold09 {
          display = SetPalette(1),LogZ
        }
        hist ppm_em_2d_etaPhi_tt_lutjep_Threshold10 {
          display = SetPalette(1),LogZ
        }
        hist ppm_em_2d_etaPhi_tt_lutjep_Threshold11 {
          display = SetPalette(1),LogZ
        }
        hist ppm_em_2d_etaPhi_tt_lutjep_Threshold12 {
          display = SetPalette(1),LogZ
        }
        hist ppm_em_2d_etaPhi_tt_lutjep_Threshold13 {
          display = SetPalette(1),LogZ
        }
        hist ppm_had_2d_etaPhi_tt_lutjep_Threshold00 {
          display = SetPalette(1),LogZ
        }
        hist ppm_had_2d_etaPhi_tt_lutjep_Threshold01 {
          display = SetPalette(1),LogZ
        }
        hist ppm_had_2d_etaPhi_tt_lutjep_Threshold02 {
          display = SetPalette(1),LogZ
        }
        hist ppm_had_2d_etaPhi_tt_lutjep_Threshold03 {
          display = SetPalette(1),LogZ
        }
        hist ppm_had_2d_etaPhi_tt_lutjep_Threshold04 {
          display = SetPalette(1),LogZ
        }
        hist ppm_had_2d_etaPhi_tt_lutjep_Threshold05 {
          display = SetPalette(1),LogZ
        }
        hist ppm_had_2d_etaPhi_tt_lutjep_Threshold06 {
          display = SetPalette(1),LogZ
        }
        hist ppm_had_2d_etaPhi_tt_lutjep_Threshold07 {
          display = SetPalette(1),LogZ
        }
        hist ppm_had_2d_etaPhi_tt_lutjep_Threshold08 {
          display = SetPalette(1),LogZ
        }
        hist ppm_had_2d_etaPhi_tt_lutjep_Threshold09 {
          display = SetPalette(1),LogZ
        }
        hist ppm_had_2d_etaPhi_tt_lutjep_Threshold10 {
          display = SetPalette(1),LogZ
        }
        hist ppm_had_2d_etaPhi_tt_lutjep_Threshold11 {
          display = SetPalette(1),LogZ
        }
        hist ppm_had_2d_etaPhi_tt_lutjep_Threshold12 {
          display = SetPalette(1),LogZ
        }
        hist ppm_had_2d_etaPhi_tt_lutjep_Threshold13 {
          display = SetPalette(1),LogZ
        }
      }
      dir Distributions {
        output = L1Calo/Expert/TREX/LUT-JEP/Distributions
        hist ppm_em_1d_tt_lutjep_Et {
          display = LogX,LogY
        }
        hist ppm_em_1d_tt_lutjep_Eta {
        }
        hist ppm_em_1d_tt_lutjep_Phi {
        }
        hist ppm_had_1d_tt_lutjep_Et {
          display = LogX,LogY
        }
        hist ppm_had_1d_tt_lutjep_Eta {
        }
        hist ppm_had_1d_tt_lutjep_Phi {
        }
        hist ppm_1d_tt_lutjep_LutPerBCN {
        }
      }
    }

    dir Stability {
      dir FineTime {
        hist ppm_em_1d_profile_adc_fineTime {
          output = L1Calo/Expert/TREX/Stability/FineTime
        }
        hist ppm_em_2d_profile_etaPhi_adc_fineTime {
          output = L1Calo/Expert/TREX/Stability/FineTime
        }
        hist ppm_had_1d_profile_adc_fineTime {
          output = L1Calo/Expert/TREX/Stability/FineTime
        }
        hist ppm_had_2d_profile_etaPhi_adc_fineTime {
          output = L1Calo/Expert/TREX/Stability/FineTime
        }
        hist ppm_em_1d_profile_adc_LArEMBA_fineTimeVsLumi {
          output = L1Calo/Expert/TREX/Stability/FineTime/FineTime_Lumi
        }
        hist ppm_em_1d_profile_adc_LArEMBC_fineTimeVsLumi {
          output = L1Calo/Expert/TREX/Stability/FineTime/FineTime_Lumi
        }
        hist ppm_em_1d_profile_adc_LArEMECA_fineTimeVsLumi {
          output = L1Calo/Expert/TREX/Stability/FineTime/FineTime_Lumi
        }
        hist ppm_em_1d_profile_adc_LArEMECC_fineTimeVsLumi {
          output = L1Calo/Expert/TREX/Stability/FineTime/FineTime_Lumi
        }
        hist ppm_em_1d_profile_adc_LArFCAL1A_fineTimeVsLumi {
          output = L1Calo/Expert/TREX/Stability/FineTime/FineTime_Lumi
        }
        hist ppm_em_1d_profile_adc_LArFCAL1C_fineTimeVsLumi {
          output = L1Calo/Expert/TREX/Stability/FineTime/FineTime_Lumi
        }
        hist ppm_em_1d_profile_adc_LArOverlapA_fineTimeVsLumi {
          output = L1Calo/Expert/TREX/Stability/FineTime/FineTime_Lumi
        }
        hist ppm_em_1d_profile_adc_LArOverlapC_fineTimeVsLumi {
          output = L1Calo/Expert/TREX/Stability/FineTime/FineTime_Lumi
        }
        hist ppm_had_1d_profile_adc_TileLBA_fineTimeVsLumi {
          output = L1Calo/Expert/TREX/Stability/FineTime/FineTime_Lumi
        }
        hist ppm_had_1d_profile_adc_TileLBC_fineTimeVsLumi {
          output = L1Calo/Expert/TREX/Stability/FineTime/FineTime_Lumi
        }
        hist ppm_had_1d_profile_adc_TileEBA_fineTimeVsLumi {
          output = L1Calo/Expert/TREX/Stability/FineTime/FineTime_Lumi
        }
        hist ppm_had_1d_profile_adc_TileEBC_fineTimeVsLumi {
          output = L1Calo/Expert/TREX/Stability/FineTime/FineTime_Lumi
        }
        hist ppm_had_1d_profile_adc_TileHECA_fineTimeVsLumi {
          output = L1Calo/Expert/TREX/Stability/FineTime/FineTime_Lumi
        }
        hist ppm_had_1d_profile_adc_TileHECC_fineTimeVsLumi {
          output = L1Calo/Expert/TREX/Stability/FineTime/FineTime_Lumi
        }
        hist ppm_had_1d_profile_adc_LArFCAL23A_fineTimeVsLumi {
          output = L1Calo/Expert/TREX/Stability/FineTime/FineTime_Lumi
        }
        hist ppm_had_1d_profile_adc_LArFCAL23C_fineTimeVsLumi {
          output = L1Calo/Expert/TREX/Stability/FineTime/FineTime_Lumi
        }
      }
      dir Pedestal {
        hist ppm_em_1d_profile_adc_pedestalVsBCN {
          output = L1Calo/Expert/TREX/Stability/Pedestal
        }
        hist ppm_em_1d_profile_adc_pedestalVsLumi {
          output = L1Calo/Expert/TREX/Stability/Pedestal
        }
        hist ppm_em_pedestal_BCN_lumi {
          output = L1Calo/Expert/TREX/Stability/Pedestal
        }
        hist ppm_em_2d_profile_etaPhi_adc_pedestal {
          output = L1Calo/Expert/TREX/Stability/Pedestal
        }
        hist ppm_had_1d_profile_adc_pedestalVsBCN {
          output = L1Calo/Expert/TREX/Stability/Pedestal
        }
        hist ppm_had_1d_profile_adc_pedestalVsLumi {
          output = L1Calo/Expert/TREX/Stability/Pedestal
        }
        hist ppm_had_pedestal_BCN_lumi {
          output = L1Calo/Expert/TREX/Stability/Pedestal
        }
        hist ppm_had_2d_profile_etaPhi_adc_pedestal {
          output = L1Calo/Expert/TREX/Stability/Pedestal
        }
        hist ppm_em_1d_profile_adc_LArEMBA_pedestalVsBCN {
          output = L1Calo/Expert/TREX/Stability/Pedestal/Pedestal_BCN
        }
        hist ppm_em_1d_profile_adc_LArEMBC_pedestalVsBCN {
          output = L1Calo/Expert/TREX/Stability/Pedestal/Pedestal_BCN
        }
        hist ppm_em_1d_profile_adc_LArEMECA_pedestalVsBCN {
          output = L1Calo/Expert/TREX/Stability/Pedestal/Pedestal_BCN
        }
        hist ppm_em_1d_profile_adc_LArEMECC_pedestalVsBCN {
          output = L1Calo/Expert/TREX/Stability/Pedestal/Pedestal_BCN
        }
        hist ppm_em_1d_profile_adc_LArFCAL1A_pedestalVsBCN {
          output = L1Calo/Expert/TREX/Stability/Pedestal/Pedestal_BCN
        }
        hist ppm_em_1d_profile_adc_LArFCAL1C_pedestalVsBCN {
          output = L1Calo/Expert/TREX/Stability/Pedestal/Pedestal_BCN
        }
        hist ppm_em_1d_profile_adc_LArOverlapA_pedestalVsBCN {
          output = L1Calo/Expert/TREX/Stability/Pedestal/Pedestal_BCN
        }
        hist ppm_em_1d_profile_adc_LArOverlapC_pedestalVsBCN {
          output = L1Calo/Expert/TREX/Stability/Pedestal/Pedestal_BCN
        }
        hist ppm_had_1d_profile_adc_TileLBA_pedestalVsBCN {
          output = L1Calo/Expert/TREX/Stability/Pedestal/Pedestal_BCN
        }
        hist ppm_had_1d_profile_adc_TileLBC_pedestalVsBCN {
          output = L1Calo/Expert/TREX/Stability/Pedestal/Pedestal_BCN
        }
        hist ppm_had_1d_profile_adc_TileEBA_pedestalVsBCN {
          output = L1Calo/Expert/TREX/Stability/Pedestal/Pedestal_BCN
        }
        hist ppm_had_1d_profile_adc_TileEBC_pedestalVsBCN {
          output = L1Calo/Expert/TREX/Stability/Pedestal/Pedestal_BCN
        }
        hist ppm_had_1d_profile_adc_LArHECA_pedestalVsBCN {
          output = L1Calo/Expert/TREX/Stability/Pedestal/Pedestal_BCN
        }
        hist ppm_had_1d_profile_adc_LArHECC_pedestalVsBCN {
          output = L1Calo/Expert/TREX/Stability/Pedestal/Pedestal_BCN
        }
        hist ppm_had_1d_profile_adc_LArFCAL23A_pedestalVsBCN {
          output = L1Calo/Expert/TREX/Stability/Pedestal/Pedestal_BCN
        }
        hist ppm_had_1d_profile_adc_LArFCAL23C_pedestalVsBCN {
          output = L1Calo/Expert/TREX/Stability/Pedestal/Pedestal_BCN
        }
        hist ppm_em_1d_profile_adc_LArEMBA_pedestalVsLumi {
          output = L1Calo/Expert/TREX/Stability/Pedestal/Pedestal_Lumi
        }
        hist ppm_em_1d_profile_adc_LArEMBC_pedestalVsLumi {
          output = L1Calo/Expert/TREX/Stability/Pedestal/Pedestal_Lumi
        }
        hist ppm_em_1d_profile_adc_LArEMECA_pedestalVsLumi {
          output = L1Calo/Expert/TREX/Stability/Pedestal/Pedestal_Lumi
        }
        hist ppm_em_1d_profile_adc_LArEMECC_pedestalVsLumi {
          output = L1Calo/Expert/TREX/Stability/Pedestal/Pedestal_Lumi
        }
        hist ppm_em_1d_profile_adc_LArFCAL1A_pedestalVsLumi {
          output = L1Calo/Expert/TREX/Stability/Pedestal/Pedestal_Lumi
        }
        hist ppm_em_1d_profile_adc_LArFCAL1C_pedestalVsLumi {
          output = L1Calo/Expert/TREX/Stability/Pedestal/Pedestal_Lumi
        }
        hist ppm_em_1d_profile_adc_LArOverlapA_pedestalVsLumi {
          output = L1Calo/Expert/TREX/Stability/Pedestal/Pedestal_Lumi
        }
        hist ppm_em_1d_profile_adc_LArOverlapC_pedestalVsLumi {
          output = L1Calo/Expert/TREX/Stability/Pedestal/Pedestal_Lumi
        }
        hist ppm_had_1d_profile_adc_TileLBA_pedestalVsLumi {
          output = L1Calo/Expert/TREX/Stability/Pedestal/Pedestal_Lumi
        }
        hist ppm_had_1d_profile_adc_TileLBC_pedestalVsLumi {
          output = L1Calo/Expert/TREX/Stability/Pedestal/Pedestal_Lumi
        }
        hist ppm_had_1d_profile_adc_TileEBA_pedestalVsLumi {
          output = L1Calo/Expert/TREX/Stability/Pedestal/Pedestal_Lumi
        }
        hist ppm_had_1d_profile_adc_TileEBC_pedestalVsLumi {
          output = L1Calo/Expert/TREX/Stability/Pedestal/Pedestal_Lumi
        }
        hist ppm_had_1d_profile_adc_LArHECA_pedestalVsLumi {
          output = L1Calo/Expert/TREX/Stability/Pedestal/Pedestal_Lumi
        }
        hist ppm_had_1d_profile_adc_LArHECC_pedestalVsLumi {
          output = L1Calo/Expert/TREX/Stability/Pedestal/Pedestal_Lumi
        }
        hist ppm_had_1d_profile_adc_LArFCAL23A_pedestalVsLumi {
          output = L1Calo/Expert/TREX/Stability/Pedestal/Pedestal_Lumi
        }
        hist ppm_had_1d_profile_adc_LArFCAL23C_pedestalVsLumi {
          output = L1Calo/Expert/TREX/Stability/Pedestal/Pedestal_Lumi
        }
        hist ppm_em_2d_profile_adc_LArEMBA_pedestalVsLumiVsBCN {
          output = L1Calo/Expert/TREX/Stability/Pedestal/Pedestal_Summary
        }
        hist ppm_em_2d_profile_adc_LArEMBA_pedestalVsLumiVsBCN {
          output = L1Calo/Expert/TREX/Stability/Pedestal/Pedestal_Summary
        }
        hist ppm_em_2d_profile_adc_LArEMBC_pedestalVsLumiVsBCN {
          output = L1Calo/Expert/TREX/Stability/Pedestal/Pedestal_Summary
        }
        hist ppm_em_2d_profile_adc_LArEMECA_pedestalVsLumiVsBCN {
          output = L1Calo/Expert/TREX/Stability/Pedestal/Pedestal_Summary
        }
        hist ppm_em_2d_profile_adc_LArEMECC_pedestalVsLumiVsBCN {
          output = L1Calo/Expert/TREX/Stability/Pedestal/Pedestal_Summary
        }
        hist ppm_em_2d_profile_adc_LArFCAL1A_pedestalVsLumiVsBCN {
          output = L1Calo/Expert/TREX/Stability/Pedestal/Pedestal_Summary
        }
        hist ppm_em_2d_profile_adc_LArFCAL1C_pedestalVsLumiVsBCN {
          output = L1Calo/Expert/TREX/Stability/Pedestal/Pedestal_Summary
        }
        hist ppm_em_2d_profile_adc_LArOverlapA_pedestalVsLumiVsBCN {
          output = L1Calo/Expert/TREX/Stability/Pedestal/Pedestal_Summary
        }
        hist ppm_em_2d_profile_adc_LArOverlapC_pedestalVsLumiVsBCN {
          output = L1Calo/Expert/TREX/Stability/Pedestal/Pedestal_Summary
        }
        hist ppm_had_2d_profile_adc_LArFCAL23A_pedestalVsLumiVsBCN {
          output = L1Calo/Expert/TREX/Stability/Pedestal/Pedestal_Summary
        }
        hist ppm_had_2d_profile_adc_LArFCAL23C_pedestalVsLumiVsBCN {
          output = L1Calo/Expert/TREX/Stability/Pedestal/Pedestal_Summary
        }
        hist ppm_had_2d_profile_adc_LArHECA_pedestalVsLumiVsBCN {
          output = L1Calo/Expert/TREX/Stability/Pedestal/Pedestal_Summary
        }
        hist ppm_had_2d_profile_adc_LArHECC_pedestalVsLumiVsBCN {
          output = L1Calo/Expert/TREX/Stability/Pedestal/Pedestal_Summary
        }
        hist ppm_had_2d_profile_adc_TileEBA_pedestalVsLumiVsBCN {
          output = L1Calo/Expert/TREX/Stability/Pedestal/Pedestal_Summary
        }
        hist ppm_had_2d_profile_adc_TileEBC_pedestalVsLumiVsBCN {
          output = L1Calo/Expert/TREX/Stability/Pedestal/Pedestal_Summary
        }
        hist ppm_had_2d_profile_adc_TileLBA_pedestalVsLumiVsBCN {
          output = L1Calo/Expert/TREX/Stability/Pedestal/Pedestal_Summary
        }
        hist ppm_had_2d_profile_adc_TileLBC_pedestalVsLumiVsBCN {
          output = L1Calo/Expert/TREX/Stability/Pedestal/Pedestal_Summary
        }
      }
      dir PedestalCorrection {
        hist ppm_em_1d_profile_pedestalCorrectionVsBCN {
          output = L1Calo/Expert/TREX/Stability/PedestalCorrection
        }
        hist ppm_em_1d_profile_pedestalCorrectionVsLumi {
          output = L1Calo/Expert/TREX/Stability/PedestalCorrection
        }
        hist ppm_em_pedestalCorrection_BCN_lumi {
          output = L1Calo/Expert/TREX/Stability/PedestalCorrection
        }
        hist ppm_em_2d_profile_etaPhi_pedestalCorrection {
          output = L1Calo/Expert/TREX/Stability/PedestalCorrection
        }
        hist ppm_had_1d_profile_pedestalCorrectionVsBCN {
          output = L1Calo/Expert/TREX/Stability/PedestalCorrection
        }
        hist ppm_had_1d_profile_pedestalCorrectionVsLumi {
          output = L1Calo/Expert/TREX/Stability/PedestalCorrection
        }
        hist ppm_had_pedestalCorrection_BCN_lumi {
          output = L1Calo/Expert/TREX/Stability/PedestalCorrection
        }
        hist ppm_had_2d_profile_etaPhi_pedestalCorrection {
          output = L1Calo/Expert/TREX/Stability/PedestalCorrection
        }
        hist ppm_em_1d_profile_LArEMBA_pedestalCorrectionVsBCN {
          output = L1Calo/Expert/TREX/Stability/PedestalCorrection/PedestalCorrection_BCN
        }
        hist ppm_em_1d_profile_LArEMBC_pedestalCorrectionVsBCN {
          output = L1Calo/Expert/TREX/Stability/PedestalCorrection/PedestalCorrection_BCN
        }
        hist ppm_em_1d_profile_LArEMECA_pedestalCorrectionVsBCN {
          output = L1Calo/Expert/TREX/Stability/PedestalCorrection/PedestalCorrection_BCN
        }
        hist ppm_em_1d_profile_LArEMECC_pedestalCorrectionVsBCN {
          output = L1Calo/Expert/TREX/Stability/PedestalCorrection/PedestalCorrection_BCN
        }
        hist ppm_em_1d_profile_LArFCAL1A_pedestalCorrectionVsBCN {
          output = L1Calo/Expert/TREX/Stability/PedestalCorrection/PedestalCorrection_BCN
        }
        hist ppm_em_1d_profile_LArFCAL1C_pedestalCorrectionVsBCN {
          output = L1Calo/Expert/TREX/Stability/PedestalCorrection/PedestalCorrection_BCN
        }
        hist ppm_em_1d_profile_LArOverlapA_pedestalCorrectionVsBCN {
          output = L1Calo/Expert/TREX/Stability/PedestalCorrection/PedestalCorrection_BCN
        }
        hist ppm_em_1d_profile_LArOverlapC_pedestalCorrectionVsBCN {
          output = L1Calo/Expert/TREX/Stability/PedestalCorrection/PedestalCorrection_BCN
        }
        hist ppm_had_1d_profile_TileLBA_pedestalCorrectionVsBCN {
          output = L1Calo/Expert/TREX/Stability/PedestalCorrection/PedestalCorrection_BCN
        }
        hist ppm_had_1d_profile_TileLBC_pedestalCorrectionVsBCN {
          output = L1Calo/Expert/TREX/Stability/PedestalCorrection/PedestalCorrection_BCN
        }
        hist ppm_had_1d_profile_TileEBA_pedestalCorrectionVsBCN {
          output = L1Calo/Expert/TREX/Stability/PedestalCorrection/PedestalCorrection_BCN
        }
        hist ppm_had_1d_profile_TileEBC_pedestalCorrectionVsBCN {
          output = L1Calo/Expert/TREX/Stability/PedestalCorrection/PedestalCorrection_BCN
        }
        hist ppm_had_1d_profile_LArHECA_pedestalCorrectionVsBCN {
          output = L1Calo/Expert/TREX/Stability/PedestalCorrection/PedestalCorrection_BCN
        }
        hist ppm_had_1d_profile_LArHECC_pedestalCorrectionVsBCN {
          output = L1Calo/Expert/TREX/Stability/PedestalCorrection/PedestalCorrection_BCN
        }
        hist ppm_had_1d_profile_LArFCAL23A_pedestalCorrectionVsBCN {
          output = L1Calo/Expert/TREX/Stability/PedestalCorrection/PedestalCorrection_BCN
        }
        hist ppm_had_1d_profile_LArFCAL23C_pedestalCorrectionVsBCN {
          output = L1Calo/Expert/TREX/Stability/PedestalCorrection/PedestalCorrection_BCN
        }
        hist ppm_em_1d_profile_LArEMBA_pedestalCorrectionVsLumi {
          output = L1Calo/Expert/TREX/Stability/PedestalCorrection/PedestalCorrection_Lumi
        }
        hist ppm_em_1d_profile_LArEMBC_pedestalCorrectionVsLumi {
          output = L1Calo/Expert/TREX/Stability/PedestalCorrection/PedestalCorrection_Lumi
        }
        hist ppm_em_1d_profile_LArEMECA_pedestalCorrectionVsLumi {
          output = L1Calo/Expert/TREX/Stability/PedestalCorrection/PedestalCorrection_Lumi
        }
        hist ppm_em_1d_profile_LArEMECC_pedestalCorrectionVsLumi {
          output = L1Calo/Expert/TREX/Stability/PedestalCorrection/PedestalCorrection_Lumi
        }
        hist ppm_em_1d_profile_LArFCAL1A_pedestalCorrectionVsLumi {
          output = L1Calo/Expert/TREX/Stability/PedestalCorrection/PedestalCorrection_Lumi
        }
        hist ppm_em_1d_profile_LArFCAL1C_pedestalCorrectionVsLumi {
          output = L1Calo/Expert/TREX/Stability/PedestalCorrection/PedestalCorrection_Lumi
        }
        hist ppm_em_1d_profile_LArOverlapA_pedestalCorrectionVsLumi {
          output = L1Calo/Expert/TREX/Stability/PedestalCorrection/PedestalCorrection_Lumi
        }
        hist ppm_em_1d_profile_LArOverlapC_pedestalCorrectionVsLumi {
          output = L1Calo/Expert/TREX/Stability/PedestalCorrection/PedestalCorrection_Lumi
        }
        hist ppm_had_1d_profile_TileLBA_pedestalCorrectionVsLumi {
          output = L1Calo/Expert/TREX/Stability/PedestalCorrection/PedestalCorrection_Lumi
        }
        hist ppm_had_1d_profile_TileLBC_pedestalCorrectionVsLumi {
          output = L1Calo/Expert/TREX/Stability/PedestalCorrection/PedestalCorrection_Lumi
        }
        hist ppm_had_1d_profile_TileEBA_pedestalCorrectionVsLumi {
          output = L1Calo/Expert/TREX/Stability/PedestalCorrection/PedestalCorrection_Lumi
        }
        hist ppm_had_1d_profile_TileEBC_pedestalCorrectionVsLumi {
          output = L1Calo/Expert/TREX/Stability/PedestalCorrection/PedestalCorrection_Lumi
        }
        hist ppm_had_1d_profile_LArHECA_pedestalCorrectionVsLumi {
          output = L1Calo/Expert/TREX/Stability/PedestalCorrection/PedestalCorrection_Lumi
        }
        hist ppm_had_1d_profile_LArHECC_pedestalCorrectionVsLumi {
          output = L1Calo/Expert/TREX/Stability/PedestalCorrection/PedestalCorrection_Lumi
        }
        hist ppm_had_1d_profile_LArFCAL23A_pedestalCorrectionVsLumi {
          output = L1Calo/Expert/TREX/Stability/PedestalCorrection/PedestalCorrection_Lumi
        }
        hist ppm_had_1d_profile_LArFCAL23C_pedestalCorrectionVsLumi {
          output = L1Calo/Expert/TREX/Stability/PedestalCorrection/PedestalCorrection_Lumi
        }
        hist ppm_em_2d_profile_LArEMBA_pedestalCorrectionVsLumiVsBCN {
          output = L1Calo/Expert/TREX/Stability/PedestalCorrection/PedestalCorrection_Summary
        }
        hist ppm_em_2d_profile_LArEMBC_pedestalCorrectionVsLumiVsBCN {
          output = L1Calo/Expert/TREX/Stability/PedestalCorrection/PedestalCorrection_Summary
        }
        hist ppm_em_2d_profile_LArEMECA_pedestalCorrectionVsLumiVsBCN {
          output = L1Calo/Expert/TREX/Stability/PedestalCorrection/PedestalCorrection_Summary
        }
        hist ppm_em_2d_profile_LArEMECC_pedestalCorrectionVsLumiVsBCN {
          output = L1Calo/Expert/TREX/Stability/PedestalCorrection/PedestalCorrection_Summary
        }
        hist ppm_em_2d_profile_LArFCAL1A_pedestalCorrectionVsLumiVsBCN {
          output = L1Calo/Expert/TREX/Stability/PedestalCorrection/PedestalCorrection_Summary
        }
        hist ppm_em_2d_profile_LArFCAL1C_pedestalCorrectionVsLumiVsBCN {
          output = L1Calo/Expert/TREX/Stability/PedestalCorrection/PedestalCorrection_Summary
        }
        hist ppm_em_2d_profile_LArOverlapA_pedestalCorrectionVsLumiVsBCN {
          output = L1Calo/Expert/TREX/Stability/PedestalCorrection/PedestalCorrection_Summary
        }
        hist ppm_em_2d_profile_LArOverlapC_pedestalCorrectionVsLumiVsBCN {
          output = L1Calo/Expert/TREX/Stability/PedestalCorrection/PedestalCorrection_Summary
        }
        hist ppm_had_2d_profile_LArFCAL23A_pedestalCorrectionVsLumiVsBCN {
          output = L1Calo/Expert/TREX/Stability/PedestalCorrection/PedestalCorrection_Summary
        }
        hist ppm_had_2d_profile_LArFCAL23C_pedestalCorrectionVsLumiVsBCN {
          output = L1Calo/Expert/TREX/Stability/PedestalCorrection/PedestalCorrection_Summary
        }
        hist ppm_had_2d_profile_LArHECA_pedestalCorrectionVsLumiVsBCN {
          output = L1Calo/Expert/TREX/Stability/PedestalCorrection/PedestalCorrection_Summary
        }
        hist ppm_had_2d_profile_LArHECC_pedestalCorrectionVsLumiVsBCN {
          output = L1Calo/Expert/TREX/Stability/PedestalCorrection/PedestalCorrection_Summary
        }
        hist ppm_had_2d_profile_TileEBA_pedestalCorrectionVsLumiVsBCN {
          output = L1Calo/Expert/TREX/Stability/PedestalCorrection/PedestalCorrection_Summary
        }
        hist ppm_had_2d_profile_TileEBC_pedestalCorrectionVsLumiVsBCN {
          output = L1Calo/Expert/TREX/Stability/PedestalCorrection/PedestalCorrection_Summary
        }
        hist ppm_had_2d_profile_TileLBA_pedestalCorrectionVsLumiVsBCN {
          output = L1Calo/Expert/TREX/Stability/PedestalCorrection/PedestalCorrection_Summary
        }
        hist ppm_had_2d_profile_TileLBC_pedestalCorrectionVsLumiVsBCN {
          output = L1Calo/Expert/TREX/Stability/PedestalCorrection/PedestalCorrection_Summary
        }
      }
      dir EtCorrelation {
        hist ppm_em_1d_profile_adc_etCorrelation {
          output = L1Calo/Expert/TREX/Stability/EtCorrelation
        }
        hist ppm_em_2d_profile_etaPhi_adc_etCorrelation {
          output = L1Calo/Expert/TREX/Stability/EtCorrelation
        }
        hist ppm_had_1d_profile_adc_etCorrelation {
          output = L1Calo/Expert/TREX/Stability/EtCorrelation
        }
        hist ppm_had_2d_profile_etaPhi_adc_etCorrelation {
          output = L1Calo/Expert/TREX/Stability/EtCorrelation
        }
        hist ppm_em_1d_profile_adc_LArEMBA_etCorrelationVsLumi {
          output = L1Calo/Expert/TREX/Stability/EtCorrelation/EtCorrelation_Lumi
        }
        hist ppm_em_1d_profile_adc_LArEMBC_etCorrelationVsLumi {
          output = L1Calo/Expert/TREX/Stability/EtCorrelation/EtCorrelation_Lumi
        }
        hist ppm_em_1d_profile_adc_LArEMECA_etCorrelationVsLumi {
          output = L1Calo/Expert/TREX/Stability/EtCorrelation/EtCorrelation_Lumi
        }
        hist ppm_em_1d_profile_adc_LArEMECC_etCorrelationVsLumi {
          output = L1Calo/Expert/TREX/Stability/EtCorrelation/EtCorrelation_Lumi
        }
        hist ppm_em_1d_profile_adc_LArFCAL1A_etCorrelationVsLumi {
          output = L1Calo/Expert/TREX/Stability/EtCorrelation/EtCorrelation_Lumi
        }
        hist ppm_em_1d_profile_adc_LArFCAL1C_etCorrelationVsLumi {
          output = L1Calo/Expert/TREX/Stability/EtCorrelation/EtCorrelation_Lumi
        }
        hist ppm_em_1d_profile_adc_LArOverlapA_etCorrelationVsLumi {
          output = L1Calo/Expert/TREX/Stability/EtCorrelation/EtCorrelation_Lumi
        }
        hist ppm_em_1d_profile_adc_LArOverlapC_etCorrelationVsLumi {
          output = L1Calo/Expert/TREX/Stability/EtCorrelation/EtCorrelation_Lumi
        }
        hist ppm_had_1d_profile_adc_TileLBA_etCorrelationVsLumi {
          output = L1Calo/Expert/TREX/Stability/EtCorrelation/EtCorrelation_Lumi
        }
        hist ppm_had_1d_profile_adc_TileLBC_etCorrelationVsLumi {
          output = L1Calo/Expert/TREX/Stability/EtCorrelation/EtCorrelation_Lumi
        }
        hist ppm_had_1d_profile_adc_TileEBA_etCorrelationVsLumi {
          output = L1Calo/Expert/TREX/Stability/EtCorrelation/EtCorrelation_Lumi
        }
        hist ppm_had_1d_profile_adc_TileEBC_etCorrelationVsLumi {
          output = L1Calo/Expert/TREX/Stability/EtCorrelation/EtCorrelation_Lumi
        }
        hist ppm_had_1d_profile_adc_TileHECA_etCorrelationVsLumi {
          output = L1Calo/Expert/TREX/Stability/EtCorrelation/EtCorrelation_Lumi
        }
        hist ppm_had_1d_profile_adc_TileHECC_etCorrelationVsLumi {
          output = L1Calo/Expert/TREX/Stability/EtCorrelation/EtCorrelation_Lumi
        }
        hist ppm_had_1d_profile_adc_LArFCAL23A_etCorrelationVsLumi {
          output = L1Calo/Expert/TREX/Stability/EtCorrelation/EtCorrelation_Lumi
        }
        hist ppm_had_1d_profile_adc_LArFCAL23C_etCorrelationVsLumi {
          output = L1Calo/Expert/TREX/Stability/EtCorrelation/EtCorrelation_Lumi
        }
      }
    }
  }
}

#############
# Algorithms
#############

algorithm L1Calo_GatherData {
  libname = libdqm_algorithms.so
  name = GatherData
  reference = stream=physics_Main:CentrallyManagedReferences_TriggerMain;CentrallyManagedReferences_Trigger
}

algorithm L1Calo_IsEmpty {
  libname = libdqm_algorithms.so
  name = Bins_GreaterThan_Threshold
  BinThreshold = 0
  thresholds = L1Calo_EmptyHistThreshold
}



#############
# Thresholds
#############

thresholds L1Calo_EmptyHistThreshold {
  limits NBins {
    warning = 0
    error = 1
  }
}

#######
# BELOW IS THE AUTO-GENERATED HAN CONFIG THAT WILL EVENTUALLY REPLACE ALL OF THE ABOVE FOR L1CALO
#######

